<svg width="32" height="32" viewBox="0 0 32 32" fill="none" xmlns="http://www.w3.org/2000/svg">
<path d="M15.965 1C24.2304 1 30.93 7.70058 30.93 15.9651C30.93 24.2305 24.2304 30.93 15.965 30.93C7.69955 30.93 1 24.2304 1 15.9651C1 7.70058 7.69966 1 15.965 1Z" stroke="#E5E5E5"/>
<path d="M16 12.1625C16.6877 11.4598 17.5832 11 18.625 11C19.719 11 20.7682 11.4346 21.5418 12.2082C22.3154 12.9818 22.75 14.031 22.75 15.125V20.75H21.25V15.125C21.25 14.4288 20.9734 13.7611 20.4812 13.2688C19.9889 12.7766 19.3212 12.5 18.625 12.5C17.9288 12.5 17.2611 12.7766 16.7688 13.2688C16.2766 13.7611 16 14.4288 16 15.125V20.75H14.5V11.375H16V12.1625ZM10.75 9.875C10.4516 9.875 10.1655 9.75647 9.9545 9.5455C9.74353 9.33452 9.625 9.04837 9.625 8.75C9.625 8.45163 9.74353 8.16548 9.9545 7.9545C10.1655 7.74353 10.4516 7.625 10.75 7.625C11.0484 7.625 11.3345 7.74353 11.5455 7.9545C11.7565 8.16548 11.875 8.45163 11.875 8.75C11.875 9.04837 11.7565 9.33452 11.5455 9.5455C11.3345 9.75647 11.0484 9.875 10.75 9.875ZM10 11.375H11.5V20.75H10V11.375Z" fill="white"/>
</svg>
