<svg width="32" height="32" viewBox="0 0 32 32" fill="none" xmlns="http://www.w3.org/2000/svg">
<path d="M15.965 1C24.2304 1 30.93 7.70058 30.93 15.9651C30.93 24.2305 24.2304 30.93 15.965 30.93C7.69955 30.93 1 24.2304 1 15.9651C1 7.70058 7.69966 1 15.965 1Z" stroke="#E5E5E5"/>
<path d="M22.0848 12.2462C22.024 12.0227 21.8512 11.854 21.6536 11.8022C21.304 11.71 19.6 11.5 16 11.5C12.4 11.5 10.6976 11.71 10.3448 11.8022C10.1496 11.8532 9.9768 12.022 9.9152 12.2462C9.828 12.5642 9.6 13.897 9.6 16C9.6 18.103 9.828 19.435 9.9152 19.7545C9.976 19.9773 10.1488 20.146 10.3456 20.197C10.6976 20.29 12.4 20.5 16 20.5C19.6 20.5 21.3032 20.29 21.6552 20.1978C21.8504 20.1468 22.0232 19.978 22.0848 19.7537C22.172 19.4357 22.4 18.1 22.4 16C22.4 13.9 22.172 12.565 22.0848 12.2462ZM23.6344 11.8735C24 13.21 24 16 24 16C24 16 24 18.79 23.6344 20.1265C23.4312 20.8653 22.8368 21.4465 22.084 21.643C20.7168 22 16 22 16 22C16 22 11.2856 22 9.916 21.643C9.16 21.4435 8.5664 20.863 8.3656 20.1265C8 18.79 8 16 8 16C8 16 8 13.21 8.3656 11.8735C8.5688 11.1348 9.1632 10.5535 9.916 10.357C11.2856 10 16 10 16 10C16 10 20.7168 10 22.084 10.357C22.84 10.5565 23.4336 11.137 23.6344 11.8735V11.8735ZM14.4 18.625V13.375L19.2 16L14.4 18.625Z" fill="white"/>
</svg>
