{
    "/js/app.js": "/js/app.js",
    "/css/vuesax.css": "/css/vuesax.css",
    "/css/iconfont.css": "/css/iconfont.css",
    "/css/material-icons/material-icons.css": "/css/material-icons/material-icons.css",
    "/css/prism-tomorrow.css": "/css/prism-tomorrow.css"
}
